simulation/qsim/progetto.msim.vcd
$comment
	File created using the following command:
		vcd file progetto.msim.vcd -direction
$end
$date
	Mon Nov 24 15:42:05 2014
$end
$version
	ModelSim Version 10.1d
$end
$timescale
	1ps
$end
$scope module RS232_vlg_vec_tst $end
$var reg 12 ! binary_dist [11:0] $end
$var reg 1 " clk $end
$var reg 1 # n_rst $end
$var wire 1 $ tx $end
$var wire 1 % sampler $end
$scope module i1 $end
$var wire 1 & gnd $end
$var wire 1 ' vcc $end
$var wire 1 ( unknown $end
$var tri1 1 ) devclrn $end
$var tri1 1 * devpor $end
$var tri1 1 + devoe $end
$var wire 1 , send_cycle[8]~48_combout $end
$var wire 1 - send_cycle[19]~70_combout $end
$var wire 1 . send_cycle[28]~89_combout $end
$var wire 1 / Add0~8_combout $end
$var wire 1 0 Add0~14_combout $end
$var wire 1 1 Add0~22_combout $end
$var wire 1 2 Equal1~5_combout $end
$var wire 1 3 tx~1_combout $end
$var wire 1 4 tx~2_combout $end
$var wire 1 5 always0~4_combout $end
$var wire 1 6 tx~4_combout $end
$var wire 1 7 always0~6_combout $end
$var wire 1 8 tx~10_combout $end
$var wire 1 9 Equal1~7_combout $end
$var wire 1 : Selector36~4_combout $end
$var wire 1 ; Selector36~5_combout $end
$var wire 1 < status.S2~regout $end
$var wire 1 = Selector2~0_combout $end
$var wire 1 > always0~7_combout $end
$var wire 1 ? sample[2]~2_combout $end
$var wire 1 @ sample[6]~4_combout $end
$var wire 1 A sample[1]~7_combout $end
$var wire 1 B sample[11]~11_combout $end
$var wire 1 C clk~combout $end
$var wire 1 D clk~clkctrl_outclk $end
$var wire 1 E send_cycle[0]~32_combout $end
$var wire 1 F n_rst~combout $end
$var wire 1 G n_rst~clkctrl_outclk $end
$var wire 1 H Add0~0_combout $end
$var wire 1 I Add0~1 $end
$var wire 1 J Add0~3 $end
$var wire 1 K Add0~5 $end
$var wire 1 L Add0~6_combout $end
$var wire 1 M Add0~4_combout $end
$var wire 1 N counter~0_combout $end
$var wire 1 O Add0~2_combout $end
$var wire 1 P counter~1_combout $end
$var wire 1 Q Equal0~2_combout $end
$var wire 1 R Add0~7 $end
$var wire 1 S Add0~9 $end
$var wire 1 T Add0~11 $end
$var wire 1 U Add0~12_combout $end
$var wire 1 V Add0~13 $end
$var wire 1 W Add0~15 $end
$var wire 1 X Add0~16_combout $end
$var wire 1 Y Add0~10_combout $end
$var wire 1 Z Equal0~1_combout $end
$var wire 1 [ Add0~17 $end
$var wire 1 \ Add0~19 $end
$var wire 1 ] Add0~20_combout $end
$var wire 1 ^ Add0~18_combout $end
$var wire 1 _ Add0~21 $end
$var wire 1 ` Add0~23 $end
$var wire 1 a Add0~24_combout $end
$var wire 1 b Equal0~0_combout $end
$var wire 1 c Equal0~3_combout $end
$var wire 1 d send_cycle[27]~87 $end
$var wire 1 e send_cycle[28]~90 $end
$var wire 1 f send_cycle[29]~91_combout $end
$var wire 1 g send_cycle[29]~92 $end
$var wire 1 h send_cycle[30]~93_combout $end
$var wire 1 i send_cycle[30]~94 $end
$var wire 1 j send_cycle[31]~95_combout $end
$var wire 1 k LessThan2~0_combout $end
$var wire 1 l send_cycle[21]~74_combout $end
$var wire 1 m send_cycle[22]~76_combout $end
$var wire 1 n Equal1~1_combout $end
$var wire 1 o send_cycle[5]~42_combout $end
$var wire 1 p send_cycle[6]~44_combout $end
$var wire 1 q Equal1~2_combout $end
$var wire 1 r send_cycle[12]~56_combout $end
$var wire 1 s Equal1~4_combout $end
$var wire 1 t send_cycle[10]~52_combout $end
$var wire 1 u Equal1~3_combout $end
$var wire 1 v Equal1~6_combout $end
$var wire 1 w send_cycle[24]~80_combout $end
$var wire 1 x send_cycle[26]~84_combout $end
$var wire 1 y LessThan0~0_combout $end
$var wire 1 z LessThan0~2_combout $end
$var wire 1 { LessThan2~1_combout $end
$var wire 1 | LessThan2~2_combout $end
$var wire 1 } Selector3~0_combout $end
$var wire 1 ~ status.S3~regout $end
$var wire 1 !! send_cycle[4]~88_combout $end
$var wire 1 "! send_cycle[0]~33 $end
$var wire 1 #! send_cycle[1]~34_combout $end
$var wire 1 $! send_cycle[1]~35 $end
$var wire 1 %! send_cycle[2]~36_combout $end
$var wire 1 &! send_cycle[2]~37 $end
$var wire 1 '! send_cycle[3]~39 $end
$var wire 1 (! send_cycle[4]~40_combout $end
$var wire 1 )! send_cycle[4]~41 $end
$var wire 1 *! send_cycle[5]~43 $end
$var wire 1 +! send_cycle[6]~45 $end
$var wire 1 ,! send_cycle[7]~46_combout $end
$var wire 1 -! send_cycle[7]~47 $end
$var wire 1 .! send_cycle[8]~49 $end
$var wire 1 /! send_cycle[9]~50_combout $end
$var wire 1 0! send_cycle[9]~51 $end
$var wire 1 1! send_cycle[10]~53 $end
$var wire 1 2! send_cycle[11]~54_combout $end
$var wire 1 3! send_cycle[11]~55 $end
$var wire 1 4! send_cycle[12]~57 $end
$var wire 1 5! send_cycle[13]~58_combout $end
$var wire 1 6! send_cycle[13]~59 $end
$var wire 1 7! send_cycle[14]~60_combout $end
$var wire 1 8! send_cycle[14]~61 $end
$var wire 1 9! send_cycle[15]~62_combout $end
$var wire 1 :! send_cycle[15]~63 $end
$var wire 1 ;! send_cycle[16]~64_combout $end
$var wire 1 <! send_cycle[16]~65 $end
$var wire 1 =! send_cycle[17]~66_combout $end
$var wire 1 >! send_cycle[17]~67 $end
$var wire 1 ?! send_cycle[18]~68_combout $end
$var wire 1 @! send_cycle[18]~69 $end
$var wire 1 A! send_cycle[19]~71 $end
$var wire 1 B! send_cycle[20]~72_combout $end
$var wire 1 C! send_cycle[20]~73 $end
$var wire 1 D! send_cycle[21]~75 $end
$var wire 1 E! send_cycle[22]~77 $end
$var wire 1 F! send_cycle[23]~78_combout $end
$var wire 1 G! send_cycle[23]~79 $end
$var wire 1 H! send_cycle[24]~81 $end
$var wire 1 I! send_cycle[25]~82_combout $end
$var wire 1 J! send_cycle[25]~83 $end
$var wire 1 K! send_cycle[26]~85 $end
$var wire 1 L! send_cycle[27]~86_combout $end
$var wire 1 M! Equal1~0_combout $end
$var wire 1 N! always0~2_combout $end
$var wire 1 O! send_cycle[3]~38_combout $end
$var wire 1 P! always0~3_combout $end
$var wire 1 Q! always0~5_combout $end
$var wire 1 R! LessThan0~1_combout $end
$var wire 1 S! sample[0]~8_combout $end
$var wire 1 T! Selector0~0_combout $end
$var wire 1 U! status.S0~regout $end
$var wire 1 V! sample[0]~0_combout $end
$var wire 1 W! Mux0~1_combout $end
$var wire 1 X! sample[3]~1_combout $end
$var wire 1 Y! Mux0~0_combout $end
$var wire 1 Z! sample[4]~3_combout $end
$var wire 1 [! Mux1~0_combout $end
$var wire 1 \! sample[5]~5_combout $end
$var wire 1 ]! Mux1~1_combout $end
$var wire 1 ^! Mux1~2_combout $end
$var wire 1 _! Mux1~3_combout $end
$var wire 1 `! tx~0_combout $end
$var wire 1 a! tx~3_combout $end
$var wire 1 b! Selector1~0_combout $end
$var wire 1 c! status.S1~regout $end
$var wire 1 d! Add4~0_combout $end
$var wire 1 e! sample[8]~12_combout $end
$var wire 1 f! Mux1~4_combout $end
$var wire 1 g! sample[10]~9_combout $end
$var wire 1 h! Mux1~5_combout $end
$var wire 1 i! tx~8_combout $end
$var wire 1 j! Selector36~1_combout $end
$var wire 1 k! sample[7]~6_combout $end
$var wire 1 l! tx~9_combout $end
$var wire 1 m! Equal2~0_combout $end
$var wire 1 n! Selector36~2_combout $end
$var wire 1 o! Selector36~3_combout $end
$var wire 1 p! sample[9]~10_combout $end
$var wire 1 q! tx~7_combout $end
$var wire 1 r! tx~5_combout $end
$var wire 1 s! tx~6_combout $end
$var wire 1 t! Selector36~0_combout $end
$var wire 1 u! Selector36~6_combout $end
$var wire 1 v! tx~reg0_regout $end
$var wire 1 w! binary_dist~combout [11] $end
$var wire 1 x! binary_dist~combout [10] $end
$var wire 1 y! binary_dist~combout [9] $end
$var wire 1 z! binary_dist~combout [8] $end
$var wire 1 {! binary_dist~combout [7] $end
$var wire 1 |! binary_dist~combout [6] $end
$var wire 1 }! binary_dist~combout [5] $end
$var wire 1 ~! binary_dist~combout [4] $end
$var wire 1 !" binary_dist~combout [3] $end
$var wire 1 "" binary_dist~combout [2] $end
$var wire 1 #" binary_dist~combout [1] $end
$var wire 1 $" binary_dist~combout [0] $end
$var wire 1 %" counter [12] $end
$var wire 1 &" counter [11] $end
$var wire 1 '" counter [10] $end
$var wire 1 (" counter [9] $end
$var wire 1 )" counter [8] $end
$var wire 1 *" counter [7] $end
$var wire 1 +" counter [6] $end
$var wire 1 ," counter [5] $end
$var wire 1 -" counter [4] $end
$var wire 1 ." counter [3] $end
$var wire 1 /" counter [2] $end
$var wire 1 0" counter [1] $end
$var wire 1 1" counter [0] $end
$var wire 1 2" send_cycle [31] $end
$var wire 1 3" send_cycle [30] $end
$var wire 1 4" send_cycle [29] $end
$var wire 1 5" send_cycle [28] $end
$var wire 1 6" send_cycle [27] $end
$var wire 1 7" send_cycle [26] $end
$var wire 1 8" send_cycle [25] $end
$var wire 1 9" send_cycle [24] $end
$var wire 1 :" send_cycle [23] $end
$var wire 1 ;" send_cycle [22] $end
$var wire 1 <" send_cycle [21] $end
$var wire 1 =" send_cycle [20] $end
$var wire 1 >" send_cycle [19] $end
$var wire 1 ?" send_cycle [18] $end
$var wire 1 @" send_cycle [17] $end
$var wire 1 A" send_cycle [16] $end
$var wire 1 B" send_cycle [15] $end
$var wire 1 C" send_cycle [14] $end
$var wire 1 D" send_cycle [13] $end
$var wire 1 E" send_cycle [12] $end
$var wire 1 F" send_cycle [11] $end
$var wire 1 G" send_cycle [10] $end
$var wire 1 H" send_cycle [9] $end
$var wire 1 I" send_cycle [8] $end
$var wire 1 J" send_cycle [7] $end
$var wire 1 K" send_cycle [6] $end
$var wire 1 L" send_cycle [5] $end
$var wire 1 M" send_cycle [4] $end
$var wire 1 N" send_cycle [3] $end
$var wire 1 O" send_cycle [2] $end
$var wire 1 P" send_cycle [1] $end
$var wire 1 Q" send_cycle [0] $end
$var wire 1 R" sample [11] $end
$var wire 1 S" sample [10] $end
$var wire 1 T" sample [9] $end
$var wire 1 U" sample [8] $end
$var wire 1 V" sample [7] $end
$var wire 1 W" sample [6] $end
$var wire 1 X" sample [5] $end
$var wire 1 Y" sample [4] $end
$var wire 1 Z" sample [3] $end
$var wire 1 [" sample [2] $end
$var wire 1 \" sample [1] $end
$var wire 1 ]" sample [0] $end
$upscope $end
$upscope $end
$enddefinitions $end
#0
$dumpvars
b111000110010 !
0"
1#
1$
x%
0&
1'
x(
1)
1*
1+
0,
0-
0.
0/
00
01
12
03
04
05
06
17
08
19
1:
1;
0<
0=
1>
1?
1@
0A
0B
0C
0D
1E
1F
1G
1H
0I
1J
0K
0L
0M
0N
0O
0P
0Q
1R
0S
1T
0U
0V
1W
0X
0Y
1Z
0[
1\
0]
0^
0_
1`
0a
1b
0c
1d
0e
0f
1g
0h
0i
0j
1k
0l
0m
1n
0o
0p
1q
0r
1s
0t
1u
1v
0w
0x
1y
1z
1{
1|
0}
0~
1!!
0"!
0#!
1$!
0%!
0&!
1'!
0(!
0)!
1*!
0+!
0,!
1-!
0.!
0/!
10!
01!
02!
13!
04!
05!
16!
07!
08!
09!
1:!
0;!
0<!
0=!
1>!
0?!
0@!
1A!
0B!
0C!
1D!
0E!
0F!
1G!
0H!
0I!
1J!
0K!
0L!
1M!
1N!
0O!
1P!
1Q!
0R!
1S!
0T!
0U!
0V!
1W!
1X!
1Y!
0Z!
1[!
0\!
1]!
1^!
1_!
1`!
0a!
0b!
0c!
0d!
1e!
0f!
0g!
1h!
0i!
0j!
1k!
0l!
0m!
1n!
1o!
0p!
0q!
1r!
1s!
1t!
0u!
0v!
0$"
1#"
0""
0!"
1~!
1}!
0|!
0{!
0z!
1y!
1x!
1w!
01"
00"
0/"
0."
0-"
0,"
0+"
0*"
0)"
0("
0'"
0&"
0%"
0Q"
0P"
0O"
0N"
0M"
0L"
0K"
0J"
0I"
0H"
0G"
0F"
0E"
0D"
0C"
0B"
0A"
0@"
0?"
0>"
0="
0<"
0;"
0:"
09"
08"
07"
06"
05"
04"
03"
02"
0]"
0\"
0["
0Z"
0Y"
0X"
0W"
0V"
0U"
0T"
0S"
0R"
$end
#10000
1"
1C
1D
0%
11"
1I
0H
1O
1P
#20000
0"
0C
0D
1%
#30000
1"
1C
1D
0%
10"
01"
0J
0O
0I
1H
1M
0P
1J
1O
1N
0M
1P
0N
#40000
0#
0"
0F
0C
0D
0G
1%
00"
0O
0P
#50000
1"
1C
1D
0%
#60000
0"
0C
0D
1%
#70000
1"
1C
1D
0%
#80000
1#
0"
1F
0C
0D
1G
1%
#90000
1"
1C
1D
0%
11"
1I
0H
1O
1P
#100000
0"
0C
0D
1%
#110000
1"
1C
1D
0%
10"
01"
0J
0O
0I
1H
1M
0P
1J
1O
1N
0M
1P
0N
#120000
0"
0C
0D
1%
#130000
1"
1C
1D
0%
11"
1I
0H
0J
0O
1M
0P
1N
#140000
0"
0C
0D
1%
#150000
1"
1C
1D
0%
00"
1/"
01"
1Q
1J
1O
1K
0M
0I
1H
0K
1M
1P
1L
0N
0O
0L
1N
0P
#160000
0"
0C
0D
1%
#170000
1"
1C
1D
0%
11"
1c
1I
0H
1b!
1V!
1T!
0N
1O
#180000
0"
0C
0D
1%
#190000
1"
1C
1D
0%
1V"
1U"
1c!
1Z"
1]"
1U!
0/"
01"
1W"
1["
1l!
0]!
1q!
0!!
0;
0Y!
0V!
0Q
0M
0c
0I
1H
0^!
1u!
1P
0O
0_!
0P
0`!
#200000
0"
0C
0D
1%
#210000
1"
1C
1D
0%
1v!
11"
1I
0H
0$
1O
1P
#220000
0"
0C
0D
1%
#230000
1"
1C
1D
0%
10"
01"
0J
0O
0I
1H
1M
0P
1J
1O
1N
0M
1P
0N
#240000
0"
0C
0D
1%
#250000
1"
1C
1D
0%
11"
1I
0H
0J
0O
1M
0P
1N
#260000
0"
0C
0D
1%
#270000
1"
1C
1D
0%
00"
1/"
01"
1Q
1J
1O
1K
0M
0I
1H
0K
1M
1P
1L
0N
0O
0L
1N
0P
#280000
0"
0C
0D
1%
#290000
1"
1C
1D
0%
11"
1c
1I
0H
0N
1O
#300000
0"
0C
0D
1%
#310000
1"
1C
1D
0%
1Q"
0/"
01"
1f!
1d!
1^!
0W!
1R!
1"!
0E
09
15
13
0Q
0M
0c
0I
1H
0h!
07
1#!
1;
0Q!
14
1P
0O
04
0o!
0u!
0s!
1a!
0P
0a!
1u!
#320000
0"
0C
0D
1%
#330000
1"
1C
1D
0%
11"
1I
0H
1O
1P
#340000
0"
0C
0D
1%
#350000
1"
1C
1D
0%
10"
01"
0J
0O
0I
1H
1M
0P
1J
1O
1N
0M
1P
0N
#360000
0"
0C
0D
1%
#370000
1"
1C
1D
0%
11"
1I
0H
0J
0O
1M
0P
1N
#380000
0"
0C
0D
1%
#390000
1"
1C
1D
0%
00"
1/"
01"
1Q
1J
1O
1K
0M
0I
1H
0K
1M
1P
1L
0N
0O
0L
1N
0P
#400000
0"
0C
0D
1%
#410000
1"
1C
1D
0%
11"
1c
1I
0H
0N
1O
#420000
0"
0C
0D
1%
#430000
1"
1C
1D
0%
1P"
0Q"
0/"
01"
1h!
0f!
1]!
0[!
0$!
0#!
0k
0^!
1W!
0"!
1E
19
0Q
0M
0c
0I
1H
14
1^!
1%!
09
1$!
1#!
0;
1P
0O
1a!
1_!
1;
0%!
0P
1j!
1o!
0u!
#440000
0"
0C
0D
1%
#450000
1"
1C
1D
0%
0v!
11"
1I
0H
1$
1O
1P
#460000
0"
0C
0D
1%
#470000
1"
1C
1D
0%
10"
01"
0J
0O
0I
1H
1M
0P
1J
1O
1N
0M
1P
0N
#480000
0"
0C
0D
1%
#490000
1"
1C
1D
0%
11"
1I
0H
0J
0O
1M
0P
1N
#500000
0"
0C
0D
1%
#510000
1"
1C
1D
0%
00"
1/"
01"
1Q
1J
1O
1K
0M
0I
1H
0K
1M
1P
1L
0N
0O
0L
1N
0P
#520000
0"
0C
0D
1%
#530000
1"
1C
1D
0%
11"
1c
1I
0H
0N
1O
#540000
0"
0C
0D
1%
#550000
1"
1C
1D
0%
1Q"
0/"
01"
1f!
0^!
0W!
1"!
0E
0Q
0M
0c
0I
1H
0_!
0$!
0#!
1P
0O
0j!
1%!
0P
0o!
1u!
#560000
0"
0C
0D
1%
#570000
1"
1C
1D
0%
1v!
11"
1I
0H
0$
1O
1P
#580000
0"
0C
0D
1%
#590000
1"
1C
1D
0%
10"
01"
0J
0O
0I
1H
1M
0P
1J
1O
1N
0M
1P
0N
#600000
0"
0C
0D
1%
#610000
1"
1C
1D
0%
11"
1I
0H
0J
0O
1M
0P
1N
#620000
0"
0C
0D
1%
#630000
1"
1C
1D
0%
00"
1/"
01"
1Q
1J
1O
1K
0M
0I
1H
0K
1M
1P
1L
0N
0O
0L
1N
0P
#640000
0"
0C
0D
1%
#650000
1"
1C
1D
0%
11"
1c
1I
0H
0N
1O
#660000
0"
0C
0D
1%
#670000
1"
1C
1D
0%
1O"
0P"
0Q"
0/"
01"
0]!
1[!
1Q!
1&!
0%!
0h!
0f!
1$!
1#!
05
1^!
1W!
0"!
1E
0Q
0M
0c
0I
1H
0^!
1s!
0a!
1O!
04
1h!
0&!
1%!
0Q!
1_!
0#!
1P
0O
0_!
14
0O!
0s!
1j!
0P
0j!
1a!
1o!
0o!
0u!
1u!
#680000
0"
0C
0D
1%
#690000
1"
1C
1D
0%
11"
1I
0H
1O
1P
#700000
0"
0C
0D
1%
#710000
1"
1C
1D
0%
10"
01"
0J
0O
0I
1H
1M
0P
1J
1O
1N
0M
1P
0N
#720000
0"
0C
0D
1%
#730000
1"
1C
1D
0%
11"
1I
0H
0J
0O
1M
0P
1N
#740000
0"
0C
0D
1%
#750000
1"
1C
1D
0%
00"
1/"
01"
1Q
1J
1O
1K
0M
0I
1H
0K
1M
1P
1L
0N
0O
0L
1N
0P
#760000
0"
0C
0D
1%
#770000
1"
1C
1D
0%
11"
1c
1I
0H
0N
1O
#780000
0"
0C
0D
1%
#790000
1"
1C
1D
0%
1Q"
0/"
01"
1f!
0d!
1^!
0W!
1"!
0E
16
15
03
0Q
0M
0c
0I
1H
0h!
1_!
1#!
0r!
1Q!
04
1P
0O
1j!
0a!
0P
1o!
0u!
#800000
0"
0C
0D
1%
#810000
1"
1C
1D
0%
0v!
11"
1I
0H
1$
1O
1P
#820000
0"
0C
0D
1%
#830000
1"
1C
1D
0%
10"
01"
0J
0O
0I
1H
1M
0P
1J
1O
1N
0M
1P
0N
#840000
0"
0C
0D
1%
#850000
1"
1C
1D
0%
11"
1I
0H
0J
0O
1M
0P
1N
#860000
0"
0C
0D
1%
#870000
1"
1C
1D
0%
00"
1/"
01"
1Q
1J
1O
1K
0M
0I
1H
0K
1M
1P
1L
0N
0O
0L
1N
0P
#880000
0"
0C
0D
1%
#890000
1"
1C
1D
0%
11"
1c
1I
0H
0N
1O
#900000
0"
0C
0D
1%
#910000
1"
1C
1D
0%
1P"
0Q"
0/"
01"
1h!
0f!
1]!
0[!
0$!
0#!
0^!
1W!
0"!
1E
0Q
0M
0c
0I
1H
1^!
1&!
0%!
0_!
1$!
1#!
1P
0O
1_!
1O!
0j!
0&!
1%!
0P
1j!
0o!
0O!
1o!
1u!
0u!
#920000
0"
0C
0D
1%
#930000
1"
1C
1D
0%
11"
1I
0H
1O
1P
#940000
0"
0C
0D
1%
#950000
1"
1C
1D
0%
10"
01"
0J
0O
0I
1H
1M
0P
1J
1O
1N
0M
1P
0N
#960000
0"
0C
0D
1%
#970000
1"
1C
1D
0%
11"
1I
0H
0J
0O
1M
0P
1N
#980000
0"
0C
0D
1%
#990000
1"
1C
1D
0%
00"
1/"
01"
1Q
1J
1O
1K
0M
0I
1H
0K
1M
1P
1L
0N
0O
0L
1N
0P
#999000
b11000110010 !
b1000110010 !
b110010 !
b10010 !
b10 !
b0 !
0#"
0~!
0}!
0y!
0x!
0w!
1%
1A
1Z!
1\!
1p!
1g!
1B
#1000000
0"
0C
0D
0%
#1010000
1"
1C
1D
1%
11"
1c
1I
0H
0N
1O
#1020000
0"
0C
0D
0%
#1030000
1"
1C
1D
1%
1Q"
0/"
01"
1f!
0^!
0W!
1"!
0E
0Q
0M
0c
0I
1H
0_!
0$!
0#!
1P
0O
0j!
1&!
0%!
0P
0o!
1O!
1u!
#1040000
0"
0C
0D
0%
#1050000
1"
1C
1D
1%
1v!
11"
1I
0H
0$
1O
1P
#1060000
0"
0C
0D
0%
#1070000
1"
1C
1D
1%
10"
01"
0J
0O
0I
1H
1M
0P
1J
1O
1N
0M
1P
0N
#1080000
0"
0C
0D
0%
#1090000
1"
1C
1D
1%
11"
1I
0H
0J
0O
1M
0P
1N
#1100000
0"
0C
0D
0%
#1110000
1"
1C
1D
1%
00"
1/"
01"
1Q
1J
1O
1K
0M
0I
1H
0K
1M
1P
1L
0N
0O
0L
1N
0P
#1120000
0"
0C
0D
0%
#1130000
1"
1C
1D
1%
11"
1c
1I
0H
0N
1O
#1140000
0"
0C
0D
0%
#1150000
1"
1C
1D
1%
1N"
0O"
0P"
0Q"
0/"
01"
1r!
0'!
0O!
0{
17
06
0]!
1[!
0R!
0&!
1%!
1k
0h!
0f!
1$!
1#!
05
1^!
1W!
0"!
1E
0Q
0M
0c
0I
1H
1s!
1(!
1!!
0|
1o!
0r!
0^!
07
1'!
1O!
1{
1h!
0%!
1_!
0#!
1P
0O
0u!
0s!
0_!
0o!
0(!
0!!
1|
1j!
0P
0j!
1u!
1o!
0o!
0u!
1u!
#1160000
0"
0C
0D
0%
#1170000
1"
1C
1D
1%
11"
1I
0H
1O
1P
#1180000
0"
0C
0D
0%
#1190000
1"
1C
1D
1%
10"
01"
0J
0O
0I
1H
1M
0P
1J
1O
1N
0M
1P
0N
#1200000
0"
0C
0D
0%
#1210000
1"
1C
1D
1%
11"
1I
0H
0J
0O
1M
0P
1N
#1220000
0"
0C
0D
0%
#1230000
1"
1C
1D
1%
00"
1/"
01"
1Q
1J
1O
1K
0M
0I
1H
0K
1M
1P
1L
0N
0O
0L
1N
0P
#1240000
0"
0C
0D
0%
#1250000
1"
1C
1D
1%
11"
1c
1I
0H
0N
1O
#1260000
0"
0C
0D
0%
#1270000
1"
1C
1D
1%
1Q"
0/"
01"
1m!
1f!
1d!
1^!
0W!
1R!
1"!
0E
16
15
13
0Q
0M
0c
0I
1H
0h!
1i!
17
1#!
1r!
1P
0O
0i!
1j!
1o!
1s!
0P
0j!
0u!
#1280000
0"
0C
0D
0%
#1290000
1"
1C
1D
1%
0v!
11"
1I
0H
1$
1O
1P
#1300000
0"
0C
0D
0%
#1310000
1"
1C
1D
1%
10"
01"
0J
0O
0I
1H
1M
0P
1J
1O
1N
0M
1P
0N
#1320000
0"
0C
0D
0%
#1330000
1"
1C
1D
1%
11"
1I
0H
0J
0O
1M
0P
1N
#1340000
0"
0C
0D
0%
#1350000
1"
1C
1D
1%
00"
1/"
01"
1Q
1J
1O
1K
0M
0I
1H
0K
1M
1P
1L
0N
0O
0L
1N
0P
#1360000
0"
0C
0D
0%
#1370000
1"
1C
1D
1%
11"
1c
1I
0H
0N
1O
#1380000
0"
0C
0D
0%
#1390000
1"
1C
1D
1%
1P"
0Q"
0/"
01"
1h!
0f!
1]!
0[!
0$!
0#!
0k
0m!
0^!
1W!
0"!
1E
0Q
0M
0c
0I
1H
1i!
1^!
1%!
0{
1$!
1#!
1P
0O
1j!
1_!
1!!
0|
0%!
0P
1`!
#1400000
0"
0C
0D
0%
#1410000
1"
1C
1D
1%
11"
1I
0H
1O
1P
#1420000
0"
0C
0D
0%
#1430000
1"
1C
1D
1%
10"
01"
0J
0O
0I
1H
1M
0P
1J
1O
1N
0M
1P
0N
#1440000
0"
0C
0D
0%
#1450000
1"
1C
1D
1%
11"
1I
0H
0J
0O
1M
0P
1N
#1460000
0"
0C
0D
0%
#1470000
1"
1C
1D
1%
00"
1/"
01"
1Q
1J
1O
1K
0M
0I
1H
0K
1M
1P
1L
0N
0O
0L
1N
0P
#1480000
0"
0C
0D
0%
#1490000
1"
1C
1D
1%
11"
1c
1I
0H
0b!
0N
1=
1O
#1500000
0"
0C
0D
0%
#1510000
1"
1C
1D
1%
0c!
0N"
0P"
0/"
01"
1<
0=
0r!
0i!
0`!
0Q!
0O!
1{
07
06
14
0d!
0]!
1[!
0R!
0#!
1k
05
03
0Q
0M
0c
0I
1H
1}
0s!
0j!
1a!
1|
1r!
0^!
1`!
17
19
1Q!
04
0}
1P
1=
0O
1s!
0_!
0a!
0P
0`!
#1520000
0"
0C
0D
0%
#1530000
1"
1C
1D
1%
11"
1I
0H
1O
1P
#1540000
0"
0C
0D
0%
#1550000
1"
1C
1D
1%
10"
01"
0J
0O
0I
1H
1M
0P
1J
1O
1N
0M
1P
0N
#1560000
0"
0C
0D
0%
#1570000
1"
1C
1D
1%
11"
1I
0H
0J
0O
1M
0P
1N
#1580000
0"
0C
0D
0%
#1590000
1"
1C
1D
1%
00"
1/"
01"
1Q
1J
1O
1K
0M
0I
1H
0K
1M
1P
1L
0N
0O
0L
1N
0P
#1600000
0"
0C
0D
0%
#1610000
1"
1C
1D
1%
11"
1c
1I
0H
1}
0N
0=
1O
#1620000
0"
0C
0D
0%
#1630000
1"
1C
1D
1%
1~
0/"
01"
0<
0!!
0;
0Q
0M
0c
0I
1H
1u!
1P
0O
0P
#1640000
0"
0C
0D
0%
#1650000
1"
1C
1D
1%
1v!
11"
1I
0H
0$
1O
1P
#1660000
0"
0C
0D
0%
#1670000
1"
1C
1D
1%
10"
01"
0J
0O
0I
1H
1M
0P
1J
1O
1N
0M
1P
0N
#1680000
0"
0C
0D
0%
#1690000
1"
1C
1D
1%
11"
1I
0H
0J
0O
1M
0P
1N
#1700000
0"
0C
0D
0%
#1710000
1"
1C
1D
1%
00"
1/"
01"
1Q
1J
1O
1K
0M
0I
1H
0K
1M
1P
1L
0N
0O
0L
1N
0P
#1720000
0"
0C
0D
0%
#1730000
1"
1C
1D
1%
11"
1c
1I
0H
0N
1O
#1740000
0"
0C
0D
0%
#1750000
1"
1C
1D
1%
1Q"
0/"
01"
1f!
1d!
1^!
0W!
1R!
1"!
0E
09
15
13
0Q
0M
0c
0I
1H
0h!
07
1#!
1;
0Q!
14
1P
0O
04
0u!
0s!
1a!
0P
0a!
0t!
1u!
#1760000
0"
0C
0D
0%
#1770000
1"
1C
1D
1%
11"
1I
0H
1O
1P
#1780000
0"
0C
0D
0%
#1790000
1"
1C
1D
1%
10"
01"
0J
0O
0I
1H
1M
0P
1J
1O
1N
0M
1P
0N
#1800000
0"
0C
0D
0%
#1810000
1"
1C
1D
1%
11"
1I
0H
0J
0O
1M
0P
1N
#1820000
0"
0C
0D
0%
#1830000
1"
1C
1D
1%
00"
1/"
01"
1Q
1J
1O
1K
0M
0I
1H
0K
1M
1P
1L
0N
0O
0L
1N
0P
#1840000
0"
0C
0D
0%
#1850000
1"
1C
1D
1%
11"
1c
1I
0H
0N
1O
#1860000
0"
0C
0D
0%
#1870000
1"
1C
1D
1%
1P"
0Q"
0/"
01"
1h!
0f!
1]!
0[!
0$!
0#!
0k
0^!
1W!
0"!
1E
19
0Q
0M
0c
0I
1H
14
1^!
1%!
09
1$!
1#!
0;
1P
0O
1a!
1_!
1;
0%!
0P
0u!
1j!
#1880000
0"
0C
0D
0%
#1890000
1"
1C
1D
1%
0v!
11"
1I
0H
1$
1O
1P
#1900000
0"
0C
0D
0%
#1910000
1"
1C
1D
1%
10"
01"
0J
0O
0I
1H
1M
0P
1J
1O
1N
0M
1P
0N
#1920000
0"
0C
0D
0%
#1930000
1"
1C
1D
1%
11"
1I
0H
0J
0O
1M
0P
1N
#1940000
0"
0C
0D
0%
#1950000
1"
1C
1D
1%
00"
1/"
01"
1Q
1J
1O
1K
0M
0I
1H
0K
1M
1P
1L
0N
0O
0L
1N
0P
#1960000
0"
0C
0D
0%
#1970000
1"
1C
1D
1%
11"
1c
1I
0H
0N
1O
#1980000
0"
0C
0D
0%
#1990000
1"
1C
1D
1%
1Q"
0/"
01"
1f!
0^!
0W!
1"!
0E
0Q
0M
0c
0I
1H
0_!
0$!
0#!
1P
0O
0j!
1%!
0P
#2000000
0"
0C
0D
0%
#2010000
1"
1C
1D
1%
11"
1I
0H
1O
1P
#2020000
0"
0C
0D
0%
#2030000
1"
1C
1D
1%
10"
01"
0J
0O
0I
1H
1M
0P
1J
1O
1N
0M
1P
0N
#2040000
0"
0C
0D
0%
#2050000
1"
1C
1D
1%
11"
1I
0H
0J
0O
1M
0P
1N
#2060000
0"
0C
0D
0%
#2070000
1"
1C
1D
1%
00"
1/"
01"
1Q
1J
1O
1K
0M
0I
1H
0K
1M
1P
1L
0N
0O
0L
1N
0P
#2080000
0"
0C
0D
0%
#2090000
1"
1C
1D
1%
11"
1c
1I
0H
0N
1O
#2100000
0"
0C
0D
0%
#2110000
1"
1C
1D
1%
1O"
0P"
0Q"
0/"
01"
0]!
1[!
1Q!
1&!
0%!
0h!
0f!
1$!
1#!
05
1^!
1W!
0"!
1E
0Q
0M
0c
0I
1H
0^!
1s!
0a!
1O!
04
1h!
0&!
1%!
0Q!
1_!
0#!
1P
0O
0_!
1t!
1u!
14
0O!
0s!
1j!
0P
0j!
0u!
1a!
0t!
#2120000
0"
0C
0D
0%
#2130000
1"
1C
1D
1%
11"
1I
0H
1O
1P
#2140000
0"
0C
0D
0%
#2150000
1"
1C
1D
1%
10"
01"
0J
0O
0I
1H
1M
0P
1J
1O
1N
0M
1P
0N
#2160000
0"
0C
0D
0%
#2170000
1"
1C
1D
1%
11"
1I
0H
0J
0O
1M
0P
1N
