simulation/qsim/progetto.msim.vcd
$comment
	File created using the following command:
		vcd file progetto.msim.vcd -direction
$end
$date
	Mon Nov 10 17:30:38 2014
$end
$version
	ModelSim Version 10.1d
$end
$timescale
	1ps
$end
$scope module HCSR04_interface_vlg_vec_tst $end
$var reg 1 ! clk $end
$var reg 1 " echo_in $end
$var reg 1 # n_rst $end
$var wire 1 $ binary_distance [11] $end
$var wire 1 % binary_distance [10] $end
$var wire 1 & binary_distance [9] $end
$var wire 1 ' binary_distance [8] $end
$var wire 1 ( binary_distance [7] $end
$var wire 1 ) binary_distance [6] $end
$var wire 1 * binary_distance [5] $end
$var wire 1 + binary_distance [4] $end
$var wire 1 , binary_distance [3] $end
$var wire 1 - binary_distance [2] $end
$var wire 1 . binary_distance [1] $end
$var wire 1 / binary_distance [0] $end
$var wire 1 0 trigger_out $end
$scope module i1 $end
$var wire 1 1 gnd $end
$var wire 1 2 vcc $end
$var wire 1 3 unknown $end
$var tri1 1 4 devclrn $end
$var tri1 1 5 devpor $end
$var tri1 1 6 devoe $end
$var wire 1 7 Add1~10_combout $end
$var wire 1 8 Add1~14_combout $end
$var wire 1 9 Add1~19 $end
$var wire 1 : Add1~20_combout $end
$var wire 1 ; Add0~35 $end
$var wire 1 < Add0~36_combout $end
$var wire 1 = Add0~37 $end
$var wire 1 > Add0~38_combout $end
$var wire 1 ? Add0~39 $end
$var wire 1 @ Add0~40_combout $end
$var wire 1 A Add0~41 $end
$var wire 1 B Add0~42_combout $end
$var wire 1 C Equal1~1_combout $end
$var wire 1 D Selector1~0_combout $end
$var wire 1 E Selector0~0_combout $end
$var wire 1 F status.S2~regout $end
$var wire 1 G status.S1~regout $end
$var wire 1 H Selector2~0_combout $end
$var wire 1 I Selector1~1_combout $end
$var wire 1 J Selector1~2_combout $end
$var wire 1 K start_reg[2]~feeder_combout $end
$var wire 1 L end_reg[9]~feeder_combout $end
$var wire 1 M end_reg[3]~feeder_combout $end
$var wire 1 N start_reg[1]~feeder_combout $end
$var wire 1 O clk~combout $end
$var wire 1 P clk~clkctrl_outclk $end
$var wire 1 Q Add0~1 $end
$var wire 1 R Add0~2_combout $end
$var wire 1 S Add0~10_combout $end
$var wire 1 T n_rst~combout $end
$var wire 1 U n_rst~clkctrl_outclk $end
$var wire 1 V Add0~0_combout $end
$var wire 1 W Selector25~0_combout $end
$var wire 1 X Equal1~0_combout $end
$var wire 1 Y Equal1~7_combout $end
$var wire 1 Z Selector24~0_combout $end
$var wire 1 [ Add0~3 $end
$var wire 1 \ Add0~4_combout $end
$var wire 1 ] Selector23~0_combout $end
$var wire 1 ^ Add0~5 $end
$var wire 1 _ Add0~6_combout $end
$var wire 1 ` Selector22~0_combout $end
$var wire 1 a Add0~7 $end
$var wire 1 b Add0~8_combout $end
$var wire 1 c Selector21~0_combout $end
$var wire 1 d Add0~9 $end
$var wire 1 e Add0~11 $end
$var wire 1 f Add0~12_combout $end
$var wire 1 g Add0~13 $end
$var wire 1 h Add0~14_combout $end
$var wire 1 i Add0~15 $end
$var wire 1 j Add0~17 $end
$var wire 1 k Add0~18_combout $end
$var wire 1 l Add0~19 $end
$var wire 1 m Add0~20_combout $end
$var wire 1 n Add0~21 $end
$var wire 1 o Add0~22_combout $end
$var wire 1 p Add0~23 $end
$var wire 1 q Add0~24_combout $end
$var wire 1 r Add0~25 $end
$var wire 1 s Add0~26_combout $end
$var wire 1 t Add0~27 $end
$var wire 1 u Add0~29 $end
$var wire 1 v Add0~30_combout $end
$var wire 1 w Add0~31 $end
$var wire 1 x Add0~32_combout $end
$var wire 1 y Add0~33 $end
$var wire 1 z Add0~34_combout $end
$var wire 1 { Add0~28_combout $end
$var wire 1 | Equal1~2_combout $end
$var wire 1 } Equal1~3_combout $end
$var wire 1 ~ Add0~16_combout $end
$var wire 1 !! Equal1~4_combout $end
$var wire 1 "! Equal1~5_combout $end
$var wire 1 #! Equal1~6_combout $end
$var wire 1 $! Selector0~1_combout $end
$var wire 1 %! status.S0~regout $end
$var wire 1 &! trigger_out~0_combout $end
$var wire 1 '! trigger_out~reg0_regout $end
$var wire 1 (! start_reg[0]~feeder_combout $end
$var wire 1 )! echo_in~combout $end
$var wire 1 *! start_reg[0]~0_combout $end
$var wire 1 +! Add1~0_combout $end
$var wire 1 ,! binary_distance[1]~reg0feeder_combout $end
$var wire 1 -! Selector3~0_combout $end
$var wire 1 .! status.S3~regout $end
$var wire 1 /! binary_distance[1]~7_combout $end
$var wire 1 0! binary_distance[1]~reg0_regout $end
$var wire 1 1! end_reg[1]~feeder_combout $end
$var wire 1 2! end_reg[0]~0_combout $end
$var wire 1 3! Add1~1 $end
$var wire 1 4! Add1~2_combout $end
$var wire 1 5! binary_distance[2]~reg0_regout $end
$var wire 1 6! Add1~3 $end
$var wire 1 7! Add1~4_combout $end
$var wire 1 8! binary_distance[3]~reg0_regout $end
$var wire 1 9! start_reg[3]~feeder_combout $end
$var wire 1 :! Add1~5 $end
$var wire 1 ;! Add1~6_combout $end
$var wire 1 <! binary_distance[4]~reg0_regout $end
$var wire 1 =! Add1~7 $end
$var wire 1 >! Add1~8_combout $end
$var wire 1 ?! binary_distance[5]~8_combout $end
$var wire 1 @! binary_distance[5]~reg0_regout $end
$var wire 1 A! binary_distance[5]~9 $end
$var wire 1 B! binary_distance[6]~10_combout $end
$var wire 1 C! binary_distance[6]~reg0_regout $end
$var wire 1 D! Add1~9 $end
$var wire 1 E! Add1~11 $end
$var wire 1 F! Add1~12_combout $end
$var wire 1 G! binary_distance[6]~11 $end
$var wire 1 H! binary_distance[7]~12_combout $end
$var wire 1 I! binary_distance[7]~reg0_regout $end
$var wire 1 J! binary_distance[7]~13 $end
$var wire 1 K! binary_distance[8]~14_combout $end
$var wire 1 L! binary_distance[8]~reg0_regout $end
$var wire 1 M! Add1~13 $end
$var wire 1 N! Add1~15 $end
$var wire 1 O! Add1~16_combout $end
$var wire 1 P! binary_distance[8]~15 $end
$var wire 1 Q! binary_distance[9]~16_combout $end
$var wire 1 R! binary_distance[9]~reg0_regout $end
$var wire 1 S! Add1~17 $end
$var wire 1 T! Add1~18_combout $end
$var wire 1 U! binary_distance[9]~17 $end
$var wire 1 V! binary_distance[10]~18_combout $end
$var wire 1 W! binary_distance[10]~reg0_regout $end
$var wire 1 X! binary_distance[10]~19 $end
$var wire 1 Y! binary_distance[11]~20_combout $end
$var wire 1 Z! binary_distance[11]~reg0_regout $end
$var wire 1 [! start_reg [21] $end
$var wire 1 \! start_reg [20] $end
$var wire 1 ]! start_reg [19] $end
$var wire 1 ^! start_reg [18] $end
$var wire 1 _! start_reg [17] $end
$var wire 1 `! start_reg [16] $end
$var wire 1 a! start_reg [15] $end
$var wire 1 b! start_reg [14] $end
$var wire 1 c! start_reg [13] $end
$var wire 1 d! start_reg [12] $end
$var wire 1 e! start_reg [11] $end
$var wire 1 f! start_reg [10] $end
$var wire 1 g! start_reg [9] $end
$var wire 1 h! start_reg [8] $end
$var wire 1 i! start_reg [7] $end
$var wire 1 j! start_reg [6] $end
$var wire 1 k! start_reg [5] $end
$var wire 1 l! start_reg [4] $end
$var wire 1 m! start_reg [3] $end
$var wire 1 n! start_reg [2] $end
$var wire 1 o! start_reg [1] $end
$var wire 1 p! start_reg [0] $end
$var wire 1 q! end_reg [21] $end
$var wire 1 r! end_reg [20] $end
$var wire 1 s! end_reg [19] $end
$var wire 1 t! end_reg [18] $end
$var wire 1 u! end_reg [17] $end
$var wire 1 v! end_reg [16] $end
$var wire 1 w! end_reg [15] $end
$var wire 1 x! end_reg [14] $end
$var wire 1 y! end_reg [13] $end
$var wire 1 z! end_reg [12] $end
$var wire 1 {! end_reg [11] $end
$var wire 1 |! end_reg [10] $end
$var wire 1 }! end_reg [9] $end
$var wire 1 ~! end_reg [8] $end
$var wire 1 !" end_reg [7] $end
$var wire 1 "" end_reg [6] $end
$var wire 1 #" end_reg [5] $end
$var wire 1 $" end_reg [4] $end
$var wire 1 %" end_reg [3] $end
$var wire 1 &" end_reg [2] $end
$var wire 1 '" end_reg [1] $end
$var wire 1 (" end_reg [0] $end
$var wire 1 )" counter [21] $end
$var wire 1 *" counter [20] $end
$var wire 1 +" counter [19] $end
$var wire 1 ," counter [18] $end
$var wire 1 -" counter [17] $end
$var wire 1 ." counter [16] $end
$var wire 1 /" counter [15] $end
$var wire 1 0" counter [14] $end
$var wire 1 1" counter [13] $end
$var wire 1 2" counter [12] $end
$var wire 1 3" counter [11] $end
$var wire 1 4" counter [10] $end
$var wire 1 5" counter [9] $end
$var wire 1 6" counter [8] $end
$var wire 1 7" counter [7] $end
$var wire 1 8" counter [6] $end
$var wire 1 9" counter [5] $end
$var wire 1 :" counter [4] $end
$var wire 1 ;" counter [3] $end
$var wire 1 <" counter [2] $end
$var wire 1 =" counter [1] $end
$var wire 1 >" counter [0] $end
$upscope $end
$upscope $end
$enddefinitions $end
#0
$dumpvars
0!
0"
1#
0/
0.
0-
0,
0+
0*
0)
0(
0'
0&
0%
0$
00
01
12
x3
14
15
16
07
08
09
0:
1;
0<
0=
0>
1?
0@
0A
0B
1C
0D
0E
0F
0G
0H
1I
0J
0K
0L
0M
0N
0O
0P
0Q
0R
0S
1T
1U
1V
1W
0X
1Y
0Z
1[
0\
0]
0^
0_
0`
1a
0b
0c
0d
1e
0f
0g
0h
1i
0j
0k
1l
0m
0n
0o
1p
0q
0r
0s
1t
0u
0v
1w
0x
0y
0z
0{
1|
1}
0~
1!!
1"!
1#!
0$!
0%!
1&!
0'!
0(!
0)!
0*!
0+!
0,!
0-!
0.!
0/!
00!
01!
02!
13!
04!
05!
06!
07!
08!
09!
1:!
0;!
0<!
0=!
0>!
0?!
0@!
0A!
0B!
0C!
1D!
0E!
0F!
1G!
0H!
0I!
0J!
0K!
0L!
1M!
0N!
0O!
1P!
0Q!
0R!
1S!
0T!
0U!
0V!
0W!
1X!
0Y!
0Z!
0p!
0o!
0n!
0m!
0l!
0k!
0j!
0i!
0h!
0g!
0f!
ze!
zd!
zc!
zb!
za!
z`!
z_!
z^!
z]!
z\!
z[!
0("
0'"
0&"
0%"
0$"
0#"
0""
0!"
0~!
0}!
0|!
z{!
zz!
zy!
zx!
zw!
zv!
zu!
zt!
zs!
zr!
zq!
0>"
0="
0<"
0;"
0:"
09"
08"
07"
06"
05"
04"
03"
02"
01"
00"
0/"
0."
0-"
0,"
0+"
0*"
0)"
$end
#10000
1!
0#
1O
0T
0U
1P
#20000
0!
0O
0P
#30000
1!
1O
1P
#40000
0!
0O
0P
#50000
1!
1O
1P
#60000
0!
0O
0P
#70000
1!
1O
1P
#80000
0!
0O
0P
#90000
1!
1O
1P
#100000
0!
0O
0P
#110000
1!
1O
1P
#120000
1#
0!
1T
0O
0P
1U
#130000
1!
1O
1P
1'!
1>"
1(!
1Q
0V
10
1R
0W
1Z
#140000
0!
0O
0P
#150000
1!
1O
1P
1="
0>"
11!
0[
0R
1N
1D
0(!
0Q
1V
1\
0Z
1[
1R
1W
1]
0\
1Z
0]
#160000
0!
0O
0P
#170000
1!
1O
1P
1>"
1(!
1Q
0V
0[
0R
0W
1\
0Z
1]
#180000
0!
0O
0P
#190000
1!
1O
1P
1<"
0="
0>"
1^
0\
1X
1K
01!
1[
1R
0N
0D
0(!
0Q
1V
1_
0]
0I
1E
0^
1\
1Z
0R
1W
1`
1J
1$!
0_
1]
0Z
0`
#200000
0!
0O
0P
#210000
1!
1O
1P
1%!
1>"
1G
0&!
1D
1(!
0X
1Q
0V
1I
1R
0W
1Z
#220000
0!
0O
0P
#230000
1!
1O
1P
0'!
1="
0>"
11!
0[
0R
1N
0(!
1X
0Q
1V
00
1^
0\
0Z
0E
1[
1R
1W
1_
0]
0^
1\
1Z
1`
0_
1]
0`
#240000
0!
0O
0P
#250000
1!
1O
1P
1>"
1(!
0X
1Q
0V
1E
0[
0R
0W
1^
0\
0Z
1_
0]
1`
#260000
0!
0O
0P
#270000
1!
1O
1P
1;"
0<"
0="
0>"
19!
0a
0_
1M
0^
1\
0K
01!
1[
1R
0N
0(!
0Q
1V
1b
0`
1a
1_
1]
0\
1Z
0R
1W
1c
0b
1`
0]
0Z
0c
#280000
0!
0O
0P
#290000
1!
1O
1P
1>"
1(!
1Q
0V
1R
0W
1Z
#300000
0!
0O
0P
#310000
1!
1O
1P
1="
0>"
11!
0[
0R
1N
0(!
0Q
1V
1\
0Z
1[
1R
1W
1]
0\
1Z
0]
#320000
0!
0O
0P
#330000
1!
1O
1P
1>"
1(!
1Q
0V
0[
0R
0W
1\
0Z
1]
#340000
0!
0O
0P
#350000
1!
1O
1P
1<"
0="
0>"
1^
0\
1X
1K
01!
1[
1R
0N
0(!
0Q
1V
0a
0_
0]
0E
0^
1\
1Z
0R
1W
1b
0`
1a
1_
1]
0Z
1c
0b
1`
0c
#360000
0!
0O
0P
#370000
1!
1O
1P
1>"
1(!
0X
1Q
0V
1E
1R
0W
1Z
#380000
0!
0O
0P
#390000
1!
1O
1P
1="
0>"
11!
0[
0R
1N
0(!
1X
0Q
1V
1^
0\
0Z
0E
1[
1R
1W
0a
0_
0]
0^
1\
1Z
1b
0`
1a
1_
1]
1c
0b
1`
0c
#400000
0!
0O
0P
#410000
1!
1O
1P
1>"
1(!
0X
1Q
0V
1E
0[
0R
0W
1^
0\
0Z
0a
0_
0]
1b
0`
1c
#420000
0!
0O
0P
#430000
1!
1O
1P
1:"
0;"
0<"
0="
0>"
1d
0b
09!
1a
1_
0M
0^
1\
0K
01!
1[
1R
0N
0(!
0Q
1V
1S
0c
0d
1b
1`
0_
1]
0\
1Z
0R
1W
0S
1c
0`
0]
0Z
#440000
0!
0O
0P
#450000
1!
1O
1P
1>"
1(!
1Q
0V
1R
0W
1Z
#460000
0!
0O
0P
#470000
1!
1O
1P
1="
0>"
11!
0[
0R
1N
0(!
0Q
1V
1\
0Z
1[
1R
1W
1]
0\
1Z
0]
#480000
0!
0O
0P
#490000
1!
1O
1P
1>"
1(!
1Q
0V
0[
0R
0W
1\
0Z
1]
#500000
0!
0O
0P
#510000
1!
1O
1P
1<"
0="
0>"
1^
0\
1X
1K
01!
1[
1R
0N
0(!
0Q
1V
1_
0]
0E
0^
1\
1Z
0R
1W
1`
0_
1]
0Z
0`
#520000
0!
0O
0P
#530000
1!
1O
1P
1>"
1(!
0X
1Q
0V
1E
1R
0W
1Z
#540000
0!
0O
0P
#550000
1!
1O
1P
1="
0>"
11!
0[
0R
1N
0(!
1X
0Q
1V
1^
0\
0Z
0E
1[
1R
1W
1_
0]
0^
1\
1Z
1`
0_
1]
0`
#560000
0!
0O
0P
#570000
1!
1O
1P
1>"
1(!
0X
1Q
0V
1E
0[
0R
0W
1^
0\
0Z
1_
0]
1`
#580000
0!
0O
0P
#590000
1!
1O
1P
1;"
0<"
0="
0>"
19!
0a
0_
1M
0^
1\
0K
01!
1[
1R
0N
0(!
0Q
1V
1d
0b
0`
1a
1_
1]
0\
1Z
0R
1W
1S
0c
0d
1b
1`
0]
0Z
0S
1c
#600000
0!
0O
0P
#610000
1!
1O
1P
1>"
1(!
1Q
0V
1R
0W
1Z
#620000
0!
0O
0P
#630000
1!
1O
1P
1="
0>"
11!
0#!
0[
0R
1N
0(!
0Q
1V
1\
0Z
1[
1R
1W
1]
0\
1Z
0]
#640000
0!
0O
0P
#650000
1!
1O
1P
1>"
1(!
1Q
0V
0[
0R
0W
1\
0Z
1]
#660000
0!
0O
0P
#670000
1!
1O
1P
1<"
0="
0>"
1^
0\
1X
1K
01!
1#!
1[
1R
0N
0(!
0Q
1V
0a
0_
0]
0E
0^
1\
1Z
0R
1W
1d
0b
0`
1a
1_
1]
0Z
1S
0c
0d
1b
1`
0S
1c
#680000
0!
0O
0P
#690000
1!
1O
1P
1>"
1(!
0X
1Q
0V
1E
1R
0W
1Z
#700000
0!
0O
0P
#710000
1!
1O
1P
1="
0>"
11!
0#!
0[
0R
1N
0(!
1X
0Q
1V
0Y
1^
0\
0Z
0E
1[
1R
1W
0c
0`
0]
0W
0J
0a
0_
0$!
0^
1\
1d
0b
1a
1_
1S
0d
1b
0S
#720000
0!
0O
0P
#730000
1!
1O
1P
0%!
0:"
0;"
0<"
0="
0G
1&!
1c
1`
1]
1Z
1W
0D
1#!
0b
09!
0_
0M
0\
0X
0K
01!
0R
0N
1Y
0c
0`
0]
0Z
#740000
0!
0O
0P
#750000
1!
1O
1P
1'!
1>"
1(!
1Q
0V
10
1R
0W
1Z
#760000
0!
0O
0P
#770000
1!
1O
1P
1="
0>"
11!
0[
0R
1N
1D
0(!
0Q
1V
1\
0Z
1[
1R
1W
1]
0\
1Z
0]
#780000
0!
0O
0P
#790000
1!
1O
1P
1>"
1(!
1Q
0V
0[
0R
0W
1\
0Z
1]
#800000
0!
0O
0P
#810000
1!
1O
1P
1<"
0="
0>"
1^
0\
1X
1K
01!
1[
1R
0N
0D
0(!
0Q
1V
1_
0]
0I
1E
0^
1\
1Z
0R
1W
1`
1J
1$!
0_
1]
0Z
0`
#820000
0!
0O
0P
#830000
1!
1O
1P
1%!
1>"
1G
0&!
1D
1(!
0X
1Q
0V
1I
1R
0W
1Z
#840000
0!
0O
0P
#850000
1!
1O
1P
0'!
1="
0>"
11!
0[
0R
1N
0(!
1X
0Q
1V
00
1^
0\
0Z
0E
1[
1R
1W
1_
0]
0^
1\
1Z
1`
0_
1]
0`
#860000
0!
0O
0P
#870000
1!
1O
1P
1>"
1(!
0X
1Q
0V
1E
0[
0R
0W
1^
0\
0Z
1_
0]
1`
#880000
0!
0O
0P
#890000
1!
1O
1P
1;"
0<"
0="
0>"
19!
0a
0_
1M
0^
1\
0K
01!
1[
1R
0N
0(!
0Q
1V
1b
0`
1a
1_
1]
0\
1Z
0R
1W
1c
0b
1`
0]
0Z
0c
#900000
0!
0O
0P
#910000
1!
1O
1P
1>"
1(!
1Q
0V
1R
0W
1Z
#920000
0!
0O
0P
#930000
1!
1O
1P
1="
0>"
11!
0[
0R
1N
0(!
0Q
1V
1\
0Z
1[
1R
1W
1]
0\
1Z
0]
#940000
0!
0O
0P
#950000
1!
1O
1P
1>"
1(!
1Q
0V
0[
0R
0W
1\
0Z
1]
#960000
0!
0O
0P
#970000
1!
1O
1P
1<"
0="
0>"
1^
0\
1X
1K
01!
1[
1R
0N
0(!
0Q
1V
0a
0_
0]
0E
0^
1\
1Z
0R
1W
1b
0`
1a
1_
1]
0Z
1c
0b
1`
0c
#980000
0!
0O
0P
#990000
1!
1O
1P
1>"
1(!
0X
1Q
0V
1E
1R
0W
1Z
